{
  "version": 2,
  "projects": {
    "components": {
      "root": "libs/components",
      "sourceRoot": "libs/components/src",
      "projectType": "library",
      "targets": {
        "build": {
          "executor": "@nrwl/web:package",
          "outputs": ["{options.outputPath}"],
          "options": {
            "outputPath": "dist/libs/components",
            "tsConfig": "libs/components/tsconfig.lib.json",
            "project": "libs/components/package.json",
            "entryFile": "libs/components/src/index.ts",
            "external": ["react/jsx-runtime"],
            "rollupConfig": "@nrwl/react/plugins/bundle-rollup",
            "assets": [
              {
                "glob": "libs/components/README.md",
                "input": ".",
                "output": "."
              }
            ]
          }
        },
        "lint": {
          "executor": "@nrwl/linter:eslint",
          "options": {
            "lintFilePatterns": ["libs/components/**/*.{ts,tsx,js,jsx,mdx}"]
          }
        },
        "test": {
          "executor": "@nrwl/jest:jest",
          "outputs": ["coverage/libs/components"],
          "options": {
            "jestConfig": "libs/components/jest.config.js",
            "passWithNoTests": true
          }
        }
      }
    },
    "content": {
      "root": "libs/content",
      "sourceRoot": "libs/content/src",
      "projectType": "library",
      "targets": {
        "build": {
          "executor": "@nrwl/web:package",
          "outputs": ["{options.outputPath}"],
          "options": {
            "outputPath": "dist/libs/content",
            "tsConfig": "libs/content/tsconfig.lib.json",
            "project": "libs/content/package.json",
            "entryFile": "libs/content/src/index.ts",
            "external": ["react/jsx-runtime"],
            "rollupConfig": "@nrwl/react/plugins/bundle-rollup",
            "assets": [
              {
                "glob": "libs/content/README.md",
                "input": ".",
                "output": "."
              }
            ]
          }
        },
        "lint": {
          "executor": "@nrwl/linter:eslint",
          "options": {
            "lintFilePatterns": ["libs/content/**/*.{ts,tsx,js,jsx}"]
          }
        },
        "test": {
          "executor": "@nrwl/jest:jest",
          "outputs": ["coverage/libs/content"],
          "options": {
            "jestConfig": "libs/content/jest.config.js",
            "passWithNoTests": true
          }
        }
      }
    },
    "hybrid-homepage": {
      "root": "apps/hybrid-homepage",
      "sourceRoot": "apps/hybrid-homepage/src",
      "projectType": "application",
      "targets": {
        "build": {
          "executor": "@nrwl/web:build",
          "outputs": ["{options.outputPath}"],
          "options": {
            "outputPath": "dist/apps/hybrid-homepage",
            "index": "apps/hybrid-homepage/src/index.html",
            "main": "apps/hybrid-homepage/src/main.tsx",
            "polyfills": "apps/hybrid-homepage/src/polyfills.ts",
            "tsConfig": "apps/hybrid-homepage/tsconfig.app.json",
            "assets": [
              "apps/hybrid-homepage/src/favicon.ico",
              "apps/hybrid-homepage/src/assets",
              {
                "input": "libs/assets",
                "glob": "**/*",
                "output": "assets"
              }
            ],
            "styles": ["libs/hybrid-homepage/src/styles.scss"],

            "scripts": [],
            "webpackConfig": "@nrwl/react/plugins/webpack"
          },
          "configurations": {
            "production": {
              "fileReplacements": [
                {
                  "replace": "apps/hybrid-homepage/src/environments/environment.ts",
                  "with": "apps/hybrid-homepage/src/environments/environment.prod.ts"
                }
              ],
              "optimization": true,
              "outputHashing": "all",
              "sourceMap": false,
              "extractCss": true,
              "namedChunks": false,
              "extractLicenses": true,
              "vendorChunk": false,
              "budgets": [
                {
                  "type": "initial",
                  "maximumWarning": "500kb",
                  "maximumError": "1mb"
                }
              ]
            }
          }
        },
        "serve": {
          "executor": "@nrwl/web:dev-server",
          "options": {
            "buildTarget": "hybrid-homepage:build",
            "hmr": true
          },
          "configurations": {
            "production": {
              "buildTarget": "hybrid-homepage:build:production",
              "hmr": false
            }
          }
        },
        "lint": {
          "executor": "@nrwl/linter:eslint",
          "options": {
            "lintFilePatterns": ["apps/hybrid-homepage/**/*.{ts,tsx,js,jsx}"]
          }
        },
        "test": {
          "executor": "@nrwl/jest:jest",
          "outputs": ["coverage/apps/hybrid-homepage"],
          "options": {
            "jestConfig": "apps/hybrid-homepage/jest.config.js",
            "passWithNoTests": true
          }
        }
      }
    },
    "hybrid-homepage-e2e": {
      "root": "apps/hybrid-homepage-e2e",
      "sourceRoot": "apps/hybrid-homepage-e2e/src",
      "projectType": "application",
      "targets": {
        "e2e": {
          "executor": "@nrwl/cypress:cypress",
          "options": {
            "cypressConfig": "apps/hybrid-homepage-e2e/cypress.json",
            "tsConfig": "apps/hybrid-homepage-e2e/tsconfig.e2e.json",
            "devServerTarget": "hybrid-homepage:serve"
          },
          "configurations": {
            "production": {
              "devServerTarget": "hybrid-homepage:serve:production"
            }
          }
        },
        "lint": {
          "executor": "@nrwl/linter:eslint",
          "options": {
            "lintFilePatterns": ["apps/hybrid-homepage-e2e/**/*.{js,ts}"]
          }
        }
      }
    },
    "iron-ui": {
      "root": "libs/iron-ui",
      "sourceRoot": "libs/iron-ui/src",
      "projectType": "library",
      "targets": {
        "build": {
          "executor": "@nrwl/web:package",
          "outputs": ["{options.outputPath}"],
          "options": {
            "outputPath": "dist/libs/iron-ui",
            "tsConfig": "libs/iron-ui/tsconfig.lib.json",
            "project": "libs/iron-ui/package.json",
            "entryFile": "libs/iron-ui/src/index.ts",
            "external": ["react/jsx-runtime"],
            "rollupConfig": "@nrwl/react/plugins/bundle-rollup",
            "assets": [
              {
                "glob": "libs/iron-ui/README.md",
                "input": ".",
                "output": "."
              }
            ]
          }
        },
        "lint": {
          "executor": "@nrwl/linter:eslint",
          "options": {
            "lintFilePatterns": ["libs/iron-ui/**/*.{ts,tsx,js,jsx}"]
          }
        },
        "test": {
          "executor": "@nrwl/jest:jest",
          "outputs": ["coverage/libs/iron-ui"],
          "options": {
            "jestConfig": "libs/iron-ui/jest.config.js",
            "passWithNoTests": true
          }
        }
      }
    },
    "starter": {
      "root": "apps/starter",
      "sourceRoot": "apps/starter/src",
      "projectType": "application",
      "targets": {
        "build": {
          "executor": "@nrwl/web:build",
          "outputs": ["{options.outputPath}"],
          "options": {
            "outputPath": "dist/apps/starter",
            "index": "apps/starter/src/index.html",
            "main": "apps/starter/src/main.tsx",
            "polyfills": "apps/starter/src/polyfills.ts",
            "tsConfig": "apps/starter/tsconfig.app.json",
            "assets": ["apps/starter/src/favicon.ico", "apps/starter/src/assets"],
            "styles": ["apps/starter/src/styles.scss"],
            "scripts": [],
            "webpackConfig": "@nrwl/react/plugins/webpack"
          },
          "configurations": {
            "production": {
              "fileReplacements": [
                {
                  "replace": "apps/starter/src/environments/environment.ts",
                  "with": "apps/starter/src/environments/environment.prod.ts"
                }
              ],
              "optimization": true,
              "outputHashing": "all",
              "sourceMap": false,
              "extractCss": true,
              "namedChunks": false,
              "extractLicenses": true,
              "vendorChunk": false,
              "budgets": [
                {
                  "type": "initial",
                  "maximumWarning": "500kb",
                  "maximumError": "1mb"
                }
              ]
            }
          }
        },
        "serve": {
          "executor": "@nrwl/web:dev-server",
          "options": {
            "buildTarget": "starter:build",
            "hmr": true
          },
          "configurations": {
            "production": {
              "buildTarget": "starter:build:production",
              "hmr": false
            }
          }
        },
        "lint": {
          "executor": "@nrwl/linter:eslint",
          "options": {
            "lintFilePatterns": ["apps/starter/**/*.{ts,tsx,js,jsx}"]
          }
        },
        "test": {
          "executor": "@nrwl/jest:jest",
          "outputs": ["coverage/apps/starter"],
          "options": {
            "jestConfig": "apps/starter/jest.config.js",
            "passWithNoTests": true
          }
        }
      }
    },
    "starter-e2e": {
      "root": "apps/starter-e2e",
      "sourceRoot": "apps/starter-e2e/src",
      "projectType": "application",
      "targets": {
        "e2e": {
          "executor": "@nrwl/cypress:cypress",
          "options": {
            "cypressConfig": "apps/starter-e2e/cypress.json",
            "tsConfig": "apps/starter-e2e/tsconfig.e2e.json",
            "devServerTarget": "starter:serve"
          },
          "configurations": {
            "production": {
              "devServerTarget": "starter:serve:production"
            }
          }
        },
        "lint": {
          "executor": "@nrwl/linter:eslint",
          "options": {
            "lintFilePatterns": ["apps/starter-e2e/**/*.{js,ts}"]
          }
        }
      }
    }
  },
  "cli": {
    "defaultCollection": "@nrwl/react"
  },
  "generators": {
    "@nrwl/react": {
      "application": {
        "style": "scss",
        "linter": "eslint",
        "babel": true
      },
      "component": {
        "style": "scss"
      },
      "library": {
        "style": "scss",
        "linter": "eslint"
      }
    }
  },
  "defaultProject": "starter"
}
